Pivot Tables with dplyr
…
Pivot Tables with dplyr

`summarise()` has grouped output by 'site'. You can override using the
`.groups` argument.

# A tibble: 35 × 3
# Groups:   site [5]
   site   year count_by_year
   <chr> <dbl>         <int>
 1 aque   2012            38
 2 aque   2013            32
 3 aque   2014           100
 4 aque   2015            83
 5 aque   2016            48
 6 aque   2017            67
 7 aque   2018            54
 8 carp   2012            78
 9 carp   2013            93
10 carp   2014            79
# … with 25 more rows

`summarise()` has grouped output by 'site'. You can override using the
`.groups` argument.

# A tibble: 35 × 5
# Groups:   site [5]
   site   year count_by_siteyear mean_size_mm sd_size_mm
   <chr> <dbl>             <int>        <dbl>      <dbl>
 1 aque   2012                38         71        10.2 
 2 aque   2013                32         72.1      12.3 
 3 aque   2014               100         76.9       9.32
 4 aque   2015                83         68.5      12.6 
 5 aque   2016                48         68.7      12.5 
 6 aque   2017                67         73.9      11.9 
 7 aque   2018                54         71.7       8.14
 8 carp   2012                78         74.4      14.6 
 9 carp   2013                93         76.6       8.71
10 carp   2014                79         79.1       8.57
# … with 25 more rows
…
